jtm\extra02\ArrayListMethods.class
jtm\activity04\TrafficManagementSystem.class
jtm\activity18\GitMergeTest1.class
jtm\extra01\ZodiacTest1.class
jtm\extra08\InvoiceManagerTest1.class
jtm\extra08\InvoiceManager.class
jtm\extra01\GetOne.class
jtm\extra01\GetOneTest1.class
jtm\activity07\AnimalTests1.class
jtm\activity10\StreamEditorTest1.class
jtm\activity12\ArrayFillerManagerTest1.class
jtm\extra09\GameFactory.class
jtm\activity04\Transport.class
jtm\activity15\ColorSliderTestSuite.class
jtm\activity13\Teacher.class
jtm\activity14\Student.class
jtm\activity15\ColorSlider$1.class
jtm\extra02\LetsRideTest1.class
jtm\activity03\BlackKnightTest1.class
jtm\extra08\Invoice.class
jtm\activity01\ConfigurationTest1.class
jtm\extra03\PracticalNumbers.class
jtm\extra09\MoveStrategy.class
jtm\activity17\JettyApplicationTest.class
jtm\extra12\JNIClassTest1.class
jtm\extra05\JsonCars.class
jtm\extra04\XMLCars.class
jtm\activity06\InterfaceTests1.class
jtm\extra09\CrocodileTest1.class
jtm\activity09\Orders.class
jtm\extra11\PersonMatcherTests1.class
jtm\activity14\StudentManager.class
jtm\extra05\Car.class
jtm\extra06\Generics.class
jtm\extra08\Item.class
jtm\activity17\SeleniumWebDriverTest.class
jtm\extra06\RegExTest1.class
jtm\extra09\Crocodile.class
jtm\extra12\JNIClass.class
jtm\activity06\Alien.class
jtm\extra06\Holiday.class
jtm\activity03\BlackKnight.class
jtm\activity15\ColorSliderGUITest$1.class
jtm\activity03\ArrayTest1.class
jtm\extra05\JsonCarsTest1.class
jtm\activity09\OrdersTests1.class
jtm\activity13\DatabaseTest1.class
jtm\activity03\Array.class
jtm\extra06\HolidayTest1.class
jtm\extra09\GameTest1.class
jtm\activity17\JettyController.class
jtm\extra01\Zodiac.class
jtm\activity06\Humanoid.class
jtm\activity03\RandomPersonTest1.class
jtm\activity11\TttNet.class
jtm\extra04\XMLCarTest1.class
jtm\activity13\TeacherManager.class
jtm\extra02\ArrayListMethodsTest1.class
jtm\activity031\GitTest1.class
jtm\activity15\ColorSliderGUITest.class
jtm\activity17\JettyApplication.class
jtm\extra09\Board.class
jtm\extra06\GenericsTest1.class
jtm\activity12\ArrayFillerManager.class
jtm\activity03\RandomPerson.class
jtm\extra10\Log.class
jtm\activity11\TttCli.class
jtm\extra02\LetsRide.class
jtm\activity05\EncapsulationTests1.class
jtm\activity08\SimpleCalcTests1.class
jtm\extra13\ChatServerTest1.class
jtm\testSuite\AllTests.class
jtm\extra03\PracticalNumbersTest1.class
jtm\activity15\ColorSlider.class
jtm\extra11\PersonMatcher.class
jtm\activity02\ConfigAndHelloTest1.class
jtm\activity10\StreamEditor.class
jtm\activity11\TttNetTest1.class
jtm\activity12\ArrayFiller.class
jtm\extra14\ChatClient.class
jtm\extra10\LogTest1.class
jtm\activity09\Order.class
jtm\extra14\ChatClientTest1.class
jtm\extra10\Log$ExtLog.class
jtm\extra09\CrocodileGame.class
jtm\activity04\Road.class
jtm\activity04\TrafficManagementTest1.class
jtm\extra06\RegEx.class
jtm\activity08\SimpleCalc.class
jtm\extra13\ChatServer.class
